%YAML 1.1
%TAG !u! tag:unity3d.com,2011:
--- !u!1045 &1
EditorBuildSettings:
  m_ObjectHideFlags: 0
  serializedVersion: 2
  m_Scenes:
  - enabled: 1
    path: Assets/Scenes/SampleScene.unity
    guid: 99c9720ab356a0642a771bea13969a05
  m_configObjects:
    Unity.XR.Oculus.Settings: {fileID: 11400000, guid: 033bdde4bb937574da58d3da04f0d273,
      type: 2}
    com.unity.xr.management.loader_settings: {fileID: 11400000, guid: a0604d7d6a6b36849a3c15a5d655ff03,
      type: 2}
