%YAML 1.1
%TAG !u! tag:unity3d.com,2011:
--- !u!1045 &1
EditorBuildSettings:
  m_ObjectHideFlags: 0
  serializedVersion: 2
  m_Scenes:
  - enabled: 1
    path: Assets/Scenes/MecanimAnimationSceneInputSystem.unity
    guid: 6344209e014d5b54b9c70074bdb2dafb
  m_configObjects:
    com.unity.input.settings: {fileID: 11400000, guid: 9e41d457039c758499dd59ed998e1c64, type: 2}
