{
    "name": "SendMessageInputSystem",
    "maps": [
        {
            "name": "SwatAction",
            "id": "b1fb738c-7174-4f18-966e-d69e05565857",
            "actions": [
                {
                    "name": "Move",
                    "type": "Value",
                    "id": "237c7723-0b60-4519-ba8d-f5749f34b1a4",
                    "expectedControlType": "Vector2",
                    "processors": "",
                    "interactions": "",
                    "initialStateCheck": true
                }
            ],
            "bindings": [
                {
                    "name": "WASD",
                    "id": "77a3d933-fb9e-48f0-9227-c2bf5f7b5d56",
                    "path": "2DVector",
                    "interactions": "",
                    "processors": "",
                    "groups": "",
                    "action": "Move",
                    "isComposite": true,
                    "isPartOfComposite": false
                },
                {
                    "name": "up",
                    "id": "86d0e9b1-6dbd-4850-97b6-89da67d86295",
                    "path": "<Keyboard>/w",
                    "interactions": "",
                    "processors": "",
                    "groups": "",
                    "action": "Move",
                    "isComposite": false,
                    "isPartOfComposite": true
                },
                {
                    "name": "down",
                    "id": "7104dbcc-c2e7-4c21-80ce-68c534d49e08",
                    "path": "<Keyboard>/s",
                    "interactions": "",
                    "processors": "",
                    "groups": "",
                    "action": "Move",
                    "isComposite": false,
                    "isPartOfComposite": true
                },
                {
                    "name": "left",
                    "id": "58b71bd3-9636-437a-89dd-edd08bf2fdb8",
                    "path": "<Keyboard>/a",
                    "interactions": "",
                    "processors": "",
                    "groups": "",
                    "action": "Move",
                    "isComposite": false,
                    "isPartOfComposite": true
                },
                {
                    "name": "right",
                    "id": "09995864-35bd-48e4-8f23-863671b3b2f1",
                    "path": "<Keyboard>/d",
                    "interactions": "",
                    "processors": "",
                    "groups": "",
                    "action": "Move",
                    "isComposite": false,
                    "isPartOfComposite": true
                },
                {
                    "name": "Arrow",
                    "id": "807b530a-6b22-4833-ad07-85e0dcd16f6a",
                    "path": "2DVector",
                    "interactions": "",
                    "processors": "",
                    "groups": "",
                    "action": "Move",
                    "isComposite": true,
                    "isPartOfComposite": false
                },
                {
                    "name": "up",
                    "id": "b358c040-4971-4349-bb0e-3ed568cec025",
                    "path": "<Keyboard>/upArrow",
                    "interactions": "",
                    "processors": "",
                    "groups": "",
                    "action": "Move",
                    "isComposite": false,
                    "isPartOfComposite": true
                },
                {
                    "name": "down",
                    "id": "60f59b97-268e-42c9-88dd-6a3191cc2a2a",
                    "path": "<Keyboard>/downArrow",
                    "interactions": "",
                    "processors": "",
                    "groups": "",
                    "action": "Move",
                    "isComposite": false,
                    "isPartOfComposite": true
                },
                {
                    "name": "left",
                    "id": "52f41765-a6ad-42e7-b2be-43031b1d67eb",
                    "path": "<Keyboard>/leftArrow",
                    "interactions": "",
                    "processors": "",
                    "groups": "",
                    "action": "Move",
                    "isComposite": false,
                    "isPartOfComposite": true
                },
                {
                    "name": "right",
                    "id": "38cb07c9-f90b-43ae-93e5-d5d293922608",
                    "path": "<Keyboard>/rightArrow",
                    "interactions": "",
                    "processors": "",
                    "groups": "",
                    "action": "Move",
                    "isComposite": false,
                    "isPartOfComposite": true
                }
            ]
        },
        {
            "name": "PlayerAction",
            "id": "cf1dd390-3765-4740-9121-71fae7528462",
            "actions": [
                {
                    "name": "Moove",
                    "type": "Value",
                    "id": "3c1aa410-8f40-4f47-813b-7472b53f63ad",
                    "expectedControlType": "Vector2",
                    "processors": "",
                    "interactions": "",
                    "initialStateCheck": true
                }
            ],
            "bindings": [
                {
                    "name": "WASD",
                    "id": "57843b34-833f-4369-a678-686e736ebe65",
                    "path": "2DVector",
                    "interactions": "",
                    "processors": "",
                    "groups": "",
                    "action": "Moove",
                    "isComposite": true,
                    "isPartOfComposite": false
                },
                {
                    "name": "up",
                    "id": "e95f0cd8-5ef8-4d66-b889-7aff454d08e5",
                    "path": "<Keyboard>/w",
                    "interactions": "",
                    "processors": "",
                    "groups": "",
                    "action": "Moove",
                    "isComposite": false,
                    "isPartOfComposite": true
                },
                {
                    "name": "down",
                    "id": "06bff5ac-a253-434a-907b-27a140f73c75",
                    "path": "<Keyboard>/s",
                    "interactions": "",
                    "processors": "",
                    "groups": "",
                    "action": "Moove",
                    "isComposite": false,
                    "isPartOfComposite": true
                },
                {
                    "name": "left",
                    "id": "ee7d785d-a87d-4e6b-b578-d269c1f7d663",
                    "path": "<Keyboard>/a",
                    "interactions": "",
                    "processors": "",
                    "groups": "",
                    "action": "Moove",
                    "isComposite": false,
                    "isPartOfComposite": true
                },
                {
                    "name": "right",
                    "id": "bffe1e3b-271f-4597-9a0a-98dbf98c8c20",
                    "path": "<Keyboard>/d",
                    "interactions": "",
                    "processors": "",
                    "groups": "",
                    "action": "Moove",
                    "isComposite": false,
                    "isPartOfComposite": true
                },
                {
                    "name": "Arrow",
                    "id": "51d5fe86-428c-40e8-ae36-b668f885a48b",
                    "path": "2DVector",
                    "interactions": "",
                    "processors": "",
                    "groups": "",
                    "action": "Moove",
                    "isComposite": true,
                    "isPartOfComposite": false
                },
                {
                    "name": "up",
                    "id": "ff5f45ad-9182-47b5-968f-8e4095309907",
                    "path": "<Keyboard>/upArrow",
                    "interactions": "",
                    "processors": "",
                    "groups": "",
                    "action": "Moove",
                    "isComposite": false,
                    "isPartOfComposite": true
                },
                {
                    "name": "down",
                    "id": "825317a6-5b00-4bd9-b0be-47a00abc4b8c",
                    "path": "<Keyboard>/downArrow",
                    "interactions": "",
                    "processors": "",
                    "groups": "",
                    "action": "Moove",
                    "isComposite": false,
                    "isPartOfComposite": true
                },
                {
                    "name": "left",
                    "id": "c111df96-0ab9-4d7b-8c6b-d8b1bbba60ef",
                    "path": "<Keyboard>/leftArrow",
                    "interactions": "",
                    "processors": "",
                    "groups": "",
                    "action": "Moove",
                    "isComposite": false,
                    "isPartOfComposite": true
                },
                {
                    "name": "right",
                    "id": "931451c2-b7d8-47f2-affb-878cf8847bdd",
                    "path": "<Keyboard>/rightArrow",
                    "interactions": "",
                    "processors": "",
                    "groups": "",
                    "action": "Moove",
                    "isComposite": false,
                    "isPartOfComposite": true
                }
            ]
        }
    ],
    "controlSchemes": [
        {
            "name": "PC",
            "bindingGroup": "PC",
            "devices": [
                {
                    "devicePath": "<Keyboard>",
                    "isOptional": false,
                    "isOR": false
                }
            ]
        },
        {
            "name": "Mobile",
            "bindingGroup": "Mobile",
            "devices": [
                {
                    "devicePath": "<Touchscreen>",
                    "isOptional": false,
                    "isOR": false
                }
            ]
        }
    ]
}