%YAML 1.1
%TAG !u! tag:unity3d.com,2011:
--- !u!1386491679 &1
PresetManager:
  m_ObjectHideFlags: 0
  serializedVersion: 2
  m_DefaultPresets:
  - first:
      m_NativeTypeID: 114
      m_ManagedTypePPtr: {fileID: 11500000, guid: 2213c36610e3b1c4bbf886810ed9db12,
        type: 3}
      m_ManagedTypeFallback: 
    second:
    - m_Preset: {fileID: 2655988077585873504, guid: 18697d253d848974aa7052cba872c9f0,
        type: 2}
      m_Filter: 
      m_Disabled: 0
  - first:
      m_NativeTypeID: 114
      m_ManagedTypePPtr: {fileID: 11500000, guid: ab68ce6587aab0146b8dabefbd806791,
        type: 3}
      m_ManagedTypeFallback: 
    second:
    - m_Preset: {fileID: 2655988077585873504, guid: 2c3e7ff9ab352b74da862a5a8779b276,
        type: 2}
      m_Filter: 
      m_Disabled: 0
  - first:
      m_NativeTypeID: 114
      m_ManagedTypePPtr: {fileID: 11500000, guid: 8b94c4c83dec6a94fbaebf543478259e,
        type: 3}
      m_ManagedTypeFallback: 
    second:
    - m_Preset: {fileID: 2655988077585873504, guid: fdc4f514b7b1e9c4eb39713ad9dd4eba,
        type: 2}
      m_Filter: 
      m_Disabled: 0
    - m_Preset: {fileID: 2655988077585873504, guid: e2e08fffc3edfbb47a429bae0c5a6343,
        type: 2}
      m_Filter: 
      m_Disabled: 0
  - first:
      m_NativeTypeID: 114
      m_ManagedTypePPtr: {fileID: 11500000, guid: 919e39492806b334982b6b84c90dd927,
        type: 3}
      m_ManagedTypeFallback: 
    second:
    - m_Preset: {fileID: 2655988077585873504, guid: 0caad3af14f9a414dbdf25ed41e5aa47,
        type: 2}
      m_Filter: 
      m_Disabled: 0
  - first:
      m_NativeTypeID: 114
      m_ManagedTypePPtr: {fileID: 11500000, guid: caff514de9b15ad48ab85dcff5508221,
        type: 3}
      m_ManagedTypeFallback: 
    second:
    - m_Preset: {fileID: 2655988077585873504, guid: 1421ad86ff3787b4dae70fe9e699a25f,
        type: 2}
      m_Filter: Right
      m_Disabled: 0
    - m_Preset: {fileID: 2655988077585873504, guid: ffd8268f7307a0c48a067dad4a8fe060,
        type: 2}
      m_Filter: Left
      m_Disabled: 0
  - first:
      m_NativeTypeID: 114
      m_ManagedTypePPtr: {fileID: 11500000, guid: 0bf296fc962d7184ab14ad1841598d5f,
        type: 3}
      m_ManagedTypeFallback: 
    second:
    - m_Preset: {fileID: 2655988077585873504, guid: 91f9da00cfdac5d49955df2d2d820b9c,
        type: 2}
      m_Filter: 
      m_Disabled: 0
